<?xml version="1.0" encoding="UTF-8" standalone="no"?>
<!-- Created with Inkscape (http://www.inkscape.org/) -->

<svg
   xmlns:dc="http://purl.org/dc/elements/1.1/"
   xmlns:cc="http://creativecommons.org/ns#"
   xmlns:rdf="http://www.w3.org/1999/02/22-rdf-syntax-ns#"
   xmlns:svg="http://www.w3.org/2000/svg"
   xmlns="http://www.w3.org/2000/svg"
   xmlns:sodipodi="http://sodipodi.sourceforge.net/DTD/sodipodi-0.dtd"
   xmlns:inkscape="http://www.inkscape.org/namespaces/inkscape"
   width="135.69862mm"
   height="175.5385mm"
   viewBox="0 0 135.69862 175.5385"
   version="1.1"
   id="svg8"
   inkscape:version="0.92.3 (2405546, 2018-03-11)"
   sodipodi:docname="rca-experiment-only.svg">
  <defs
     id="defs2">
    <marker
       inkscape:isstock="true"
       style="overflow:visible"
       id="marker1238"
       refX="0"
       refY="0"
       orient="auto"
       inkscape:stockid="Arrow1Mend">
      <path
         transform="matrix(-0.4,0,0,-0.4,-4,0)"
         style="fill:#000000;fill-opacity:1;fill-rule:evenodd;stroke:#000000;stroke-width:1.00000003pt;stroke-opacity:1"
         d="M 0,0 5,-5 -12.5,0 5,5 Z"
         id="path1236"
         inkscape:connector-curvature="0" />
    </marker>
    <marker
       inkscape:isstock="true"
       style="overflow:visible"
       id="marker1216"
       refX="0"
       refY="0"
       orient="auto"
       inkscape:stockid="Arrow1Mend">
      <path
         transform="matrix(-0.4,0,0,-0.4,-4,0)"
         style="fill:#000000;fill-opacity:1;fill-rule:evenodd;stroke:#000000;stroke-width:1.00000003pt;stroke-opacity:1"
         d="M 0,0 5,-5 -12.5,0 5,5 Z"
         id="path1214"
         inkscape:connector-curvature="0" />
    </marker>
    <marker
       inkscape:stockid="Arrow1Mend"
       orient="auto"
       refY="0"
       refX="0"
       id="Arrow1Mend"
       style="overflow:visible"
       inkscape:isstock="true"
       inkscape:collect="always">
      <path
         id="path921"
         d="M 0,0 5,-5 -12.5,0 5,5 Z"
         style="fill:#000000;fill-opacity:1;fill-rule:evenodd;stroke:#000000;stroke-width:1.00000003pt;stroke-opacity:1"
         transform="matrix(-0.4,0,0,-0.4,-4,0)"
         inkscape:connector-curvature="0" />
    </marker>
    <marker
       inkscape:stockid="Arrow1Mend"
       orient="auto"
       refY="0"
       refX="0"
       id="Arrow1Mend-5"
       style="overflow:visible"
       inkscape:isstock="true"
       inkscape:collect="always">
      <path
         inkscape:connector-curvature="0"
         id="path921-6"
         d="M 0,0 5,-5 -12.5,0 5,5 Z"
         style="fill:#000000;fill-opacity:1;fill-rule:evenodd;stroke:#000000;stroke-width:1.00000003pt;stroke-opacity:1"
         transform="matrix(-0.4,0,0,-0.4,-4,0)" />
    </marker>
    <marker
       inkscape:isstock="true"
       style="overflow:visible"
       id="marker1238-2"
       refX="0"
       refY="0"
       orient="auto"
       inkscape:stockid="Arrow1Mend">
      <path
         inkscape:connector-curvature="0"
         transform="matrix(-0.4,0,0,-0.4,-4,0)"
         style="fill:#000000;fill-opacity:1;fill-rule:evenodd;stroke:#000000;stroke-width:1.00000003pt;stroke-opacity:1"
         d="M 0,0 5,-5 -12.5,0 5,5 Z"
         id="path1236-9" />
    </marker>
    <marker
       inkscape:isstock="true"
       style="overflow:visible"
       id="marker1216-1"
       refX="0"
       refY="0"
       orient="auto"
       inkscape:stockid="Arrow1Mend">
      <path
         inkscape:connector-curvature="0"
         transform="matrix(-0.4,0,0,-0.4,-4,0)"
         style="fill:#000000;fill-opacity:1;fill-rule:evenodd;stroke:#000000;stroke-width:1.00000003pt;stroke-opacity:1"
         d="M 0,0 5,-5 -12.5,0 5,5 Z"
         id="path1214-2" />
    </marker>
  </defs>
  <sodipodi:namedview
     id="base"
     pagecolor="#ffffff"
     bordercolor="#666666"
     borderopacity="1.0"
     inkscape:pageopacity="0.0"
     inkscape:pageshadow="2"
     inkscape:zoom="0.98994949"
     inkscape:cx="521.87407"
     inkscape:cy="386.51356"
     inkscape:document-units="mm"
     inkscape:current-layer="layer1"
     showgrid="false"
     inkscape:window-width="1853"
     inkscape:window-height="1025"
     inkscape:window-x="67"
     inkscape:window-y="27"
     inkscape:window-maximized="1"
     fit-margin-top="10"
     fit-margin-left="10"
     fit-margin-right="10"
     fit-margin-bottom="10" />
  <metadata
     id="metadata5">
    <rdf:RDF>
      <cc:Work
         rdf:about="">
        <dc:format>image/svg+xml</dc:format>
        <dc:type
           rdf:resource="http://purl.org/dc/dcmitype/StillImage" />
        <dc:title></dc:title>
      </cc:Work>
    </rdf:RDF>
  </metadata>
  <g
     inkscape:label="Layer 1"
     inkscape:groupmode="layer"
     id="layer1"
     transform="translate(-3.1671677,-98.37972)">
    <rect
       style="opacity:1;vector-effect:none;fill:#ffccaa;fill-opacity:1;fill-rule:nonzero;stroke:#000000;stroke-width:0.32634887;stroke-linecap:round;stroke-linejoin:round;stroke-miterlimit:4;stroke-dasharray:none;stroke-dashoffset:0;stroke-opacity:1;paint-order:normal"
       id="rect815"
       width="20.594452"
       height="22.755877"
       x="25.499216"
       y="139.3248" />
    <path
       style="opacity:1;vector-effect:none;fill:none;fill-opacity:1;stroke:#000000;stroke-width:0.30000001;stroke-linecap:round;stroke-linejoin:round;stroke-miterlimit:4;stroke-dasharray:none;stroke-dashoffset:0;stroke-opacity:1;marker-end:url(#marker1216);paint-order:normal"
       d="m 30.07425,125.70401 c -0.979988,1.51453 -1.959977,3.02906 -2.939965,4.54358 -0.267269,1.95998 -0.534538,3.91996 -0.801807,5.87993"
       id="path847"
       inkscape:connector-curvature="0" />
    <path
       style="opacity:1;vector-effect:none;fill:none;fill-opacity:1;stroke:#000000;stroke-width:0.30000001;stroke-linecap:round;stroke-linejoin:round;stroke-miterlimit:4;stroke-dasharray:none;stroke-dashoffset:0;stroke-opacity:1;marker-end:url(#marker1238);paint-order:normal"
       d="m 20.185278,127.04036 2.80633,3.27405 1.336347,5.87993"
       id="path849"
       inkscape:connector-curvature="0" />
    <path
       style="opacity:1;vector-effect:none;fill:none;fill-opacity:1;stroke:#000000;stroke-width:0.30000001;stroke-linecap:round;stroke-linejoin:round;stroke-miterlimit:4;stroke-dasharray:none;stroke-dashoffset:0;stroke-opacity:1;marker-end:url(#Arrow1Mend);paint-order:normal"
       d="m 24.662042,123.63267 c 0.115432,1.81659 0.247271,3.63224 0.352054,5.44943 0.06083,1.25713 0.121657,2.51425 0.182486,3.77137"
       id="path851"
       inkscape:connector-curvature="0" />
    <text
       xml:space="preserve"
       style="font-style:normal;font-weight:normal;font-size:2.82222223px;line-height:1.25;font-family:sans-serif;letter-spacing:0px;word-spacing:0px;fill:#000000;fill-opacity:1;stroke:none;stroke-width:0.26458332"
       x="28.93836"
       y="124.1004"
       id="text884"><tspan
         sodipodi:role="line"
         id="tspan882"
         x="28.93836"
         y="124.1004"
         style="stroke-width:0.26458332">why?</tspan></text>
    <text
       xml:space="preserve"
       style="font-style:normal;font-weight:normal;font-size:2.82222223px;line-height:1.25;font-family:sans-serif;letter-spacing:0px;word-spacing:0px;fill:#000000;fill-opacity:1;stroke:none;stroke-width:0.26458332"
       x="20.064482"
       y="121.73856"
       id="text884-6"><tspan
         sodipodi:role="line"
         id="tspan882-7"
         x="20.064482"
         y="121.73856"
         style="stroke-width:0.26458332">why?</tspan></text>
    <text
       xml:space="preserve"
       style="font-style:normal;font-weight:normal;font-size:2.82222223px;line-height:1.25;font-family:sans-serif;letter-spacing:0px;word-spacing:0px;fill:#000000;fill-opacity:1;stroke:none;stroke-width:0.26458332"
       x="13.048656"
       y="125.94805"
       id="text884-5"><tspan
         sodipodi:role="line"
         id="tspan882-3"
         x="13.048656"
         y="125.94805"
         style="stroke-width:0.26458332">why?</tspan></text>
    <path
       style="opacity:1;vector-effect:none;fill:none;fill-opacity:1;stroke:#000000;stroke-width:0.30000001;stroke-linecap:round;stroke-linejoin:round;stroke-miterlimit:4;stroke-dasharray:none;stroke-dashoffset:0;stroke-opacity:1;marker-end:url(#marker1216-1);paint-order:normal"
       d="m 71.335537,125.5647 c -0.979988,1.51453 -1.959977,3.02906 -2.939965,4.54359 -0.267268,1.95997 -0.534538,3.91995 -0.801806,5.87993"
       id="path847-7"
       inkscape:connector-curvature="0" />
    <path
       style="opacity:1;vector-effect:none;fill:none;fill-opacity:1;stroke:#000000;stroke-width:0.30000001;stroke-linecap:round;stroke-linejoin:round;stroke-miterlimit:4;stroke-dasharray:none;stroke-dashoffset:0;stroke-opacity:1;marker-end:url(#marker1238-2);paint-order:normal"
       d="m 61.446565,126.90105 2.80633,3.27405 1.336348,5.87993"
       id="path849-0"
       inkscape:connector-curvature="0" />
    <path
       style="opacity:1;vector-effect:none;fill:none;fill-opacity:1;stroke:#000000;stroke-width:0.30000001;stroke-linecap:round;stroke-linejoin:round;stroke-miterlimit:4;stroke-dasharray:none;stroke-dashoffset:0;stroke-opacity:1;marker-end:url(#Arrow1Mend-5);paint-order:normal"
       d="m 65.92333,123.49336 c 0.115431,1.81659 0.24727,3.63224 0.352053,5.44944 0.06083,1.25712 0.121657,2.51424 0.182486,3.77136"
       id="path851-9"
       inkscape:connector-curvature="0" />
    <text
       xml:space="preserve"
       style="font-style:normal;font-weight:normal;font-size:2.82222223px;line-height:1.25;font-family:sans-serif;letter-spacing:0px;word-spacing:0px;fill:#000000;fill-opacity:1;stroke:none;stroke-width:0.26458332"
       x="70.199646"
       y="123.96108"
       id="text884-3"><tspan
         sodipodi:role="line"
         id="tspan882-6"
         x="70.199646"
         y="123.96108"
         style="stroke-width:0.26458332">why?</tspan></text>
    <text
       xml:space="preserve"
       style="font-style:normal;font-weight:normal;font-size:2.82222223px;line-height:1.25;font-family:sans-serif;letter-spacing:0px;word-spacing:0px;fill:#000000;fill-opacity:1;stroke:none;stroke-width:0.26458332"
       x="61.325771"
       y="121.59925"
       id="text884-6-0"><tspan
         sodipodi:role="line"
         id="tspan882-7-6"
         x="61.325771"
         y="121.59925"
         style="stroke-width:0.26458332">why?</tspan></text>
    <text
       xml:space="preserve"
       style="font-style:normal;font-weight:normal;font-size:2.82222223px;line-height:1.25;font-family:sans-serif;letter-spacing:0px;word-spacing:0px;fill:#000000;fill-opacity:1;stroke:none;stroke-width:0.26458332"
       x="54.309948"
       y="125.80875"
       id="text884-5-2"><tspan
         sodipodi:role="line"
         id="tspan882-3-6"
         x="54.309948"
         y="125.80875"
         style="stroke-width:0.26458332">why?</tspan></text>
    <text
       xml:space="preserve"
       style="font-style:normal;font-weight:normal;font-size:4.23333311px;line-height:1.25;font-family:sans-serif;letter-spacing:0px;word-spacing:0px;fill:#000000;fill-opacity:1;stroke:none;stroke-width:0.26458332"
       x="97.840034"
       y="129.35773"
       id="text884-5-2-1-2"><tspan
         sodipodi:role="line"
         id="tspan882-3-6-8-0"
         x="97.840034"
         y="129.35773"
         style="stroke-width:0.26458332">...</tspan></text>
    <text
       id="text1845"
       y="36.432846"
       x="-157.76419"
       style="font-style:normal;font-weight:normal;font-size:2.82222223px;line-height:1.25;font-family:sans-serif;letter-spacing:0px;word-spacing:0px;fill:#000000;fill-opacity:1;stroke:none;stroke-width:0.26458332"
       xml:space="preserve"
       transform="rotate(-90)"><tspan
         style="stroke-width:0.26458332"
         y="36.432846"
         x="-157.76419"
         id="tspan1843"
         sodipodi:role="line">reproduce</tspan></text>
    <rect
       y="139.3248"
       x="46.15147"
       height="22.755877"
       width="20.594452"
       id="rect1847"
       style="opacity:1;vector-effect:none;fill:#ffccaa;fill-opacity:1;fill-rule:nonzero;stroke:#000000;stroke-width:0.32634887;stroke-linecap:round;stroke-linejoin:round;stroke-miterlimit:4;stroke-dasharray:none;stroke-dashoffset:0;stroke-opacity:1;paint-order:normal" />
    <text
       xml:space="preserve"
       style="font-style:normal;font-weight:normal;font-size:2.82222223px;line-height:1.25;font-family:sans-serif;letter-spacing:0px;word-spacing:0px;fill:#000000;fill-opacity:1;stroke:none;stroke-width:0.26458332"
       x="-157.76419"
       y="57.070362"
       id="text1851"
       transform="rotate(-90)"><tspan
         sodipodi:role="line"
         id="tspan1849"
         x="-157.76419"
         y="57.070362"
         style="stroke-width:0.26458332">reproduce</tspan></text>
    <rect
       style="opacity:1;vector-effect:none;fill:#ffccaa;fill-opacity:1;fill-rule:nonzero;stroke:#000000;stroke-width:0.32634887;stroke-linecap:round;stroke-linejoin:round;stroke-miterlimit:4;stroke-dasharray:none;stroke-dashoffset:0;stroke-opacity:1;paint-order:normal"
       id="rect1853"
       width="20.594452"
       height="22.755877"
       x="66.803703"
       y="139.3248" />
    <text
       id="text1857"
       y="77.707855"
       x="-157.76419"
       style="font-style:normal;font-weight:normal;font-size:2.82222223px;line-height:1.25;font-family:sans-serif;letter-spacing:0px;word-spacing:0px;fill:#000000;fill-opacity:1;stroke:none;stroke-width:0.26458332"
       xml:space="preserve"
       transform="rotate(-90)"><tspan
         style="stroke-width:0.26458332"
         y="77.707855"
         x="-157.76419"
         id="tspan1855"
         sodipodi:role="line">reproduce</tspan></text>
    <rect
       y="139.3248"
       x="87.455933"
       height="22.755877"
       width="20.594452"
       id="rect1859"
       style="opacity:1;vector-effect:none;fill:#ffccaa;fill-opacity:1;fill-rule:nonzero;stroke:#000000;stroke-width:0.32634887;stroke-linecap:round;stroke-linejoin:round;stroke-miterlimit:4;stroke-dasharray:none;stroke-dashoffset:0;stroke-opacity:1;paint-order:normal" />
    <text
       xml:space="preserve"
       style="font-style:normal;font-weight:normal;font-size:2.82222223px;line-height:1.25;font-family:sans-serif;letter-spacing:0px;word-spacing:0px;fill:#000000;fill-opacity:1;stroke:none;stroke-width:0.26458332"
       x="-157.76419"
       y="98.345345"
       id="text1863"
       transform="rotate(-90)"><tspan
         sodipodi:role="line"
         id="tspan1861"
         x="-157.76419"
         y="98.345345"
         style="stroke-width:0.26458332">reproduce</tspan></text>
    <rect
       style="opacity:1;vector-effect:none;fill:#ffccaa;fill-opacity:1;fill-rule:nonzero;stroke:#000000;stroke-width:0.32634887;stroke-linecap:round;stroke-linejoin:round;stroke-miterlimit:4;stroke-dasharray:none;stroke-dashoffset:0;stroke-opacity:1;paint-order:normal"
       id="rect1865"
       width="20.594452"
       height="22.755877"
       x="108.10816"
       y="139.3248" />
    <text
       id="text1869"
       y="118.98284"
       x="-157.76419"
       style="font-style:normal;font-weight:normal;font-size:2.82222223px;line-height:1.25;font-family:sans-serif;letter-spacing:0px;word-spacing:0px;fill:#000000;fill-opacity:1;stroke:none;stroke-width:0.26458332"
       xml:space="preserve"
       transform="rotate(-90)"><tspan
         style="stroke-width:0.26458332"
         y="118.98284"
         x="-157.76419"
         id="tspan1867"
         sodipodi:role="line">reproduce</tspan></text>
    <rect
       y="190.53125"
       x="53.543655"
       height="23.831963"
       width="7.7285652"
       id="rect10402"
       style="opacity:1;vector-effect:none;fill:#ffccaa;fill-opacity:1;fill-rule:nonzero;stroke:#000000;stroke-width:0.38373533;stroke-linecap:round;stroke-linejoin:round;stroke-miterlimit:4;stroke-dasharray:none;stroke-dashoffset:0;stroke-opacity:1;paint-order:normal" />
    <text
       transform="rotate(-90)"
       xml:space="preserve"
       style="font-style:normal;font-weight:normal;font-size:2.82222223px;line-height:1.25;font-family:sans-serif;letter-spacing:0px;word-spacing:0px;fill:#000000;fill-opacity:1;stroke:none;stroke-width:0.26458332"
       x="-210.04585"
       y="56.502945"
       id="text10406"><tspan
         sodipodi:role="line"
         id="tspan10404"
         x="-210.04585"
         y="56.502945"
         style="stroke-width:0.26458332">reproduce</tspan></text>
    <rect
       style="opacity:1;vector-effect:none;fill:#ffccaa;fill-opacity:1;fill-rule:nonzero;stroke:#000000;stroke-width:0.38373533;stroke-linecap:round;stroke-linejoin:round;stroke-miterlimit:4;stroke-dasharray:none;stroke-dashoffset:0;stroke-opacity:1;paint-order:normal"
       id="rect10408"
       width="7.7285652"
       height="23.831963"
       x="60.951996"
       y="190.53125" />
    <text
       id="text10412"
       y="65.498795"
       x="-210.04585"
       style="font-style:normal;font-weight:normal;font-size:2.82222223px;line-height:1.25;font-family:sans-serif;letter-spacing:0px;word-spacing:0px;fill:#000000;fill-opacity:1;stroke:none;stroke-width:0.26458332"
       xml:space="preserve"
       transform="rotate(-90)"><tspan
         style="stroke-width:0.26458332"
         y="65.498795"
         x="-210.04585"
         id="tspan10410"
         sodipodi:role="line">reproduce</tspan></text>
    <rect
       y="190.53125"
       x="60.951996"
       height="23.831963"
       width="7.7285652"
       id="rect10414"
       style="opacity:1;vector-effect:none;fill:#ffccaa;fill-opacity:1;fill-rule:nonzero;stroke:#000000;stroke-width:0.38373533;stroke-linecap:round;stroke-linejoin:round;stroke-miterlimit:4;stroke-dasharray:none;stroke-dashoffset:0;stroke-opacity:1;paint-order:normal" />
    <text
       transform="rotate(-90)"
       xml:space="preserve"
       style="font-style:normal;font-weight:normal;font-size:2.82222223px;line-height:1.25;font-family:sans-serif;letter-spacing:0px;word-spacing:0px;fill:#000000;fill-opacity:1;stroke:none;stroke-width:0.26458332"
       x="-210.04585"
       y="63.911285"
       id="text10418"><tspan
         sodipodi:role="line"
         id="tspan10416"
         x="-210.04585"
         y="63.911285"
         style="stroke-width:0.26458332">reproduce</tspan></text>
    <rect
       style="opacity:1;vector-effect:none;fill:#ffccaa;fill-opacity:1;fill-rule:nonzero;stroke:#000000;stroke-width:0.38373533;stroke-linecap:round;stroke-linejoin:round;stroke-miterlimit:4;stroke-dasharray:none;stroke-dashoffset:0;stroke-opacity:1;paint-order:normal"
       id="rect10426"
       width="7.7285652"
       height="23.831963"
       x="68.360321"
       y="190.53125" />
    <text
       id="text10430"
       y="71.319626"
       x="-210.04585"
       style="font-style:normal;font-weight:normal;font-size:2.82222223px;line-height:1.25;font-family:sans-serif;letter-spacing:0px;word-spacing:0px;fill:#000000;fill-opacity:1;stroke:none;stroke-width:0.26458332"
       xml:space="preserve"
       transform="rotate(-90)"><tspan
         style="stroke-width:0.26458332"
         y="71.319626"
         x="-210.04585"
         id="tspan10428"
         sodipodi:role="line">reproduce</tspan></text>
    <rect
       y="190.53125"
       x="75.768661"
       height="23.831963"
       width="7.7285652"
       id="rect10432"
       style="opacity:1;vector-effect:none;fill:#ffccaa;fill-opacity:1;fill-rule:nonzero;stroke:#000000;stroke-width:0.38373533;stroke-linecap:round;stroke-linejoin:round;stroke-miterlimit:4;stroke-dasharray:none;stroke-dashoffset:0;stroke-opacity:1;paint-order:normal" />
    <text
       transform="rotate(-90)"
       xml:space="preserve"
       style="font-style:normal;font-weight:normal;font-size:2.82222223px;line-height:1.25;font-family:sans-serif;letter-spacing:0px;word-spacing:0px;fill:#000000;fill-opacity:1;stroke:none;stroke-width:0.26458332"
       x="-210.04585"
       y="78.727951"
       id="text10436"><tspan
         sodipodi:role="line"
         id="tspan10434"
         x="-210.04585"
         y="78.727951"
         style="stroke-width:0.26458332">reproduce</tspan></text>
    <rect
       style="opacity:1;vector-effect:none;fill:#ffccaa;fill-opacity:1;fill-rule:nonzero;stroke:#000000;stroke-width:0.38373533;stroke-linecap:round;stroke-linejoin:round;stroke-miterlimit:4;stroke-dasharray:none;stroke-dashoffset:0;stroke-opacity:1;paint-order:normal"
       id="rect10438"
       width="7.7285652"
       height="23.831963"
       x="83.177002"
       y="190.53125" />
    <text
       id="text10442"
       y="86.136292"
       x="-210.04585"
       style="font-style:normal;font-weight:normal;font-size:2.82222223px;line-height:1.25;font-family:sans-serif;letter-spacing:0px;word-spacing:0px;fill:#000000;fill-opacity:1;stroke:none;stroke-width:0.26458332"
       xml:space="preserve"
       transform="rotate(-90)"><tspan
         style="stroke-width:0.26458332"
         y="86.136292"
         x="-210.04585"
         id="tspan10440"
         sodipodi:role="line">reproduce</tspan></text>
    <text
       xml:space="preserve"
       style="font-style:normal;font-weight:normal;font-size:4.93888855px;line-height:1.25;font-family:sans-serif;letter-spacing:0px;word-spacing:0px;fill:#000000;fill-opacity:1;stroke:none;stroke-width:0.26458332"
       x="64.007065"
       y="186.68738"
       id="text10446"><tspan
         sodipodi:role="line"
         id="tspan10444"
         x="64.007065"
         y="186.68738"
         style="stroke-width:0.26458332">better:</tspan></text>
    <text
       id="text1845-9"
       y="44.526554"
       x="-156.74368"
       style="font-style:normal;font-weight:normal;font-size:2.29305553px;line-height:1.25;font-family:sans-serif;letter-spacing:0px;word-spacing:0px;fill:#000000;fill-opacity:1;stroke:none;stroke-width:0.26458332"
       xml:space="preserve"
       transform="rotate(-90)"><tspan
         style="stroke-width:0.26458332"
         y="44.526554"
         x="-156.74368"
         id="tspan1843-2"
         sodipodi:role="line">(answers)</tspan></text>
    <text
       id="text1845-9-2"
       y="65.444458"
       x="-156.74368"
       style="font-style:normal;font-weight:normal;font-size:2.29305553px;line-height:1.25;font-family:sans-serif;letter-spacing:0px;word-spacing:0px;fill:#000000;fill-opacity:1;stroke:none;stroke-width:0.26458332"
       xml:space="preserve"
       transform="rotate(-90)"><tspan
         style="stroke-width:0.26458332"
         y="65.444458"
         x="-156.74368"
         id="tspan1843-2-8"
         sodipodi:role="line">(answers)</tspan></text>
    <text
       id="text1845-9-9"
       y="86.044159"
       x="-156.74368"
       style="font-style:normal;font-weight:normal;font-size:2.29305553px;line-height:1.25;font-family:sans-serif;letter-spacing:0px;word-spacing:0px;fill:#000000;fill-opacity:1;stroke:none;stroke-width:0.26458332"
       xml:space="preserve"
       transform="rotate(-90)"><tspan
         style="stroke-width:0.26458332"
         y="86.044159"
         x="-156.74368"
         id="tspan1843-2-7"
         sodipodi:role="line">(answers)</tspan></text>
    <text
       id="text1845-9-3"
       y="106.64387"
       x="-156.74368"
       style="font-style:normal;font-weight:normal;font-size:2.29305553px;line-height:1.25;font-family:sans-serif;letter-spacing:0px;word-spacing:0px;fill:#000000;fill-opacity:1;stroke:none;stroke-width:0.26458332"
       xml:space="preserve"
       transform="rotate(-90)"><tspan
         style="stroke-width:0.26458332"
         y="106.64387"
         x="-156.74368"
         id="tspan1843-2-6"
         sodipodi:role="line">(answers)</tspan></text>
    <text
       id="text1845-9-1"
       y="127.24358"
       x="-156.74368"
       style="font-style:normal;font-weight:normal;font-size:2.29305553px;line-height:1.25;font-family:sans-serif;letter-spacing:0px;word-spacing:0px;fill:#000000;fill-opacity:1;stroke:none;stroke-width:0.26458332"
       xml:space="preserve"
       transform="rotate(-90)"><tspan
         style="stroke-width:0.26458332"
         y="127.24358"
         x="-156.74368"
         id="tspan1843-2-2"
         sodipodi:role="line">(answers)</tspan></text>
    <text
       id="text1845-9-93"
       y="59.812195"
       x="-208.91853"
       style="font-style:normal;font-weight:normal;font-size:2.29305553px;line-height:1.25;font-family:sans-serif;letter-spacing:0px;word-spacing:0px;fill:#000000;fill-opacity:1;stroke:none;stroke-width:0.26458332"
       xml:space="preserve"
       transform="rotate(-90)"><tspan
         style="stroke-width:0.26458332"
         y="59.812195"
         x="-208.91853"
         id="tspan1843-2-1"
         sodipodi:role="line">(answers)</tspan></text>
    <text
       transform="rotate(-90)"
       xml:space="preserve"
       style="font-style:normal;font-weight:normal;font-size:2.29305553px;line-height:1.25;font-family:sans-serif;letter-spacing:0px;word-spacing:0px;fill:#000000;fill-opacity:1;stroke:none;stroke-width:0.26458332"
       x="-208.91853"
       y="67.220535"
       id="text10538"><tspan
         sodipodi:role="line"
         id="tspan10536"
         x="-208.91853"
         y="67.220535"
         style="stroke-width:0.26458332">(answers)</tspan></text>
    <text
       id="text10542"
       y="74.628876"
       x="-208.91853"
       style="font-style:normal;font-weight:normal;font-size:2.29305553px;line-height:1.25;font-family:sans-serif;letter-spacing:0px;word-spacing:0px;fill:#000000;fill-opacity:1;stroke:none;stroke-width:0.26458332"
       xml:space="preserve"
       transform="rotate(-90)"><tspan
         style="stroke-width:0.26458332"
         y="74.628876"
         x="-208.91853"
         id="tspan10540"
         sodipodi:role="line">(answers)</tspan></text>
    <text
       transform="rotate(-90)"
       xml:space="preserve"
       style="font-style:normal;font-weight:normal;font-size:2.29305553px;line-height:1.25;font-family:sans-serif;letter-spacing:0px;word-spacing:0px;fill:#000000;fill-opacity:1;stroke:none;stroke-width:0.26458332"
       x="-208.91853"
       y="82.037216"
       id="text10546"><tspan
         sodipodi:role="line"
         id="tspan10544"
         x="-208.91853"
         y="82.037216"
         style="stroke-width:0.26458332">(answers)</tspan></text>
    <text
       id="text10550"
       y="89.445557"
       x="-208.91853"
       style="font-style:normal;font-weight:normal;font-size:2.29305553px;line-height:1.25;font-family:sans-serif;letter-spacing:0px;word-spacing:0px;fill:#000000;fill-opacity:1;stroke:none;stroke-width:0.26458332"
       xml:space="preserve"
       transform="rotate(-90)"><tspan
         style="stroke-width:0.26458332"
         y="89.445557"
         x="-208.91853"
         id="tspan10548"
         sodipodi:role="line">(answers)</tspan></text>
    <rect
       style="opacity:1;vector-effect:none;fill:#ffccaa;fill-opacity:1;fill-rule:nonzero;stroke:#000000;stroke-width:0.32634887;stroke-linecap:round;stroke-linejoin:round;stroke-miterlimit:4;stroke-dasharray:none;stroke-dashoffset:0;stroke-opacity:1;paint-order:normal"
       id="rect815-9"
       width="20.594454"
       height="22.755877"
       x="52.959827"
       y="240.97485" />
    <text
       id="text1845-4"
       y="63.893467"
       x="-259.41425"
       style="font-style:normal;font-weight:normal;font-size:2.82222223px;line-height:1.25;font-family:sans-serif;letter-spacing:0px;word-spacing:0px;fill:#000000;fill-opacity:1;stroke:none;stroke-width:0.26458332"
       xml:space="preserve"
       transform="rotate(-90)"><tspan
         style="stroke-width:0.26458332"
         y="63.893467"
         x="-259.41425"
         id="tspan1843-7"
         sodipodi:role="line">reproduce</tspan></text>
    <text
       id="text1845-9-8"
       y="71.987167"
       x="-258.39374"
       style="font-style:normal;font-weight:normal;font-size:2.29305553px;line-height:1.25;font-family:sans-serif;letter-spacing:0px;word-spacing:0px;fill:#000000;fill-opacity:1;stroke:none;stroke-width:0.26458332"
       xml:space="preserve"
       transform="rotate(-90)"><tspan
         style="stroke-width:0.26458332"
         y="71.987167"
         x="-258.39374"
         id="tspan1843-2-4"
         sodipodi:role="line">(answers)</tspan></text>
    <rect
       y="240.97485"
       x="73.554276"
       height="22.755882"
       width="7.7285652"
       id="rect10402-5"
       style="opacity:1;vector-effect:none;fill:#ffccaa;fill-opacity:1;fill-rule:nonzero;stroke:#000000;stroke-width:0.3749719;stroke-linecap:round;stroke-linejoin:round;stroke-miterlimit:4;stroke-dasharray:none;stroke-dashoffset:0;stroke-opacity:1;paint-order:normal" />
    <text
       transform="rotate(-90)"
       xml:space="preserve"
       style="font-style:normal;font-weight:normal;font-size:2.82222223px;line-height:1.25;font-family:sans-serif;letter-spacing:0px;word-spacing:0px;fill:#000000;fill-opacity:1;stroke:none;stroke-width:0.26458332"
       x="-260.48947"
       y="76.51358"
       id="text10406-0"><tspan
         sodipodi:role="line"
         id="tspan10404-3"
         x="-260.48947"
         y="76.51358"
         style="stroke-width:0.26458332">reproduce</tspan></text>
    <text
       id="text1845-9-93-6"
       y="79.822815"
       x="-259.36215"
       style="font-style:normal;font-weight:normal;font-size:2.29305553px;line-height:1.25;font-family:sans-serif;letter-spacing:0px;word-spacing:0px;fill:#000000;fill-opacity:1;stroke:none;stroke-width:0.26458332"
       xml:space="preserve"
       transform="rotate(-90)"><tspan
         style="stroke-width:0.26458332"
         y="79.822815"
         x="-259.36215"
         id="tspan1843-2-1-1"
         sodipodi:role="line">(answers)</tspan></text>
    <rect
       style="opacity:1;vector-effect:none;fill:#ffccaa;fill-opacity:1;fill-rule:nonzero;stroke:#000000;stroke-width:0.3749719;stroke-linecap:round;stroke-linejoin:round;stroke-miterlimit:4;stroke-dasharray:none;stroke-dashoffset:0;stroke-opacity:1;paint-order:normal"
       id="rect10659"
       width="5.2717204"
       height="22.755875"
       x="80.962616"
       y="240.97485" />
    <text
       id="text10663"
       y="83.392746"
       x="-259.9603"
       style="font-style:normal;font-weight:normal;font-size:2.82222223px;line-height:1.25;font-family:sans-serif;letter-spacing:0px;word-spacing:0px;fill:#000000;fill-opacity:1;stroke:none;stroke-width:0.26458332"
       xml:space="preserve"
       transform="rotate(-90)"><tspan
         style="stroke-width:0.26458332"
         y="83.392746"
         x="-259.9603"
         id="tspan10661"
         sodipodi:role="line">reproduce</tspan></text>
    <text
       transform="rotate(-90)"
       xml:space="preserve"
       style="font-style:normal;font-weight:normal;font-size:2.29305553px;line-height:1.25;font-family:sans-serif;letter-spacing:0px;word-spacing:0px;fill:#000000;fill-opacity:1;stroke:none;stroke-width:0.26458332"
       x="-258.30383"
       y="85.643661"
       id="text10667"><tspan
         sodipodi:role="line"
         id="tspan10665"
         x="-258.30383"
         y="85.643661"
         style="stroke-width:0.26458332">(answers)</tspan></text>
    <text
       xml:space="preserve"
       style="font-style:normal;font-weight:normal;font-size:4.93888855px;line-height:1.25;font-family:sans-serif;letter-spacing:0px;word-spacing:0px;fill:#000000;fill-opacity:1;stroke:none;stroke-width:0.26458332"
       x="63.931675"
       y="236.80711"
       id="text10446-6"><tspan
         sodipodi:role="line"
         id="tspan10444-1"
         x="63.931675"
         y="236.80711"
         style="stroke-width:0.26458332">best:</tspan></text>
    <text
       xml:space="preserve"
       style="font-style:normal;font-weight:normal;font-size:4.93888855px;line-height:1.25;font-family:sans-serif;letter-spacing:0px;word-spacing:0px;fill:#000000;fill-opacity:1;stroke:none;stroke-width:0.26458332"
       x="67.210609"
       y="112.13212"
       id="text10446-5"><tspan
         sodipodi:role="line"
         id="tspan10444-5"
         x="67.210609"
         y="112.13212"
         style="stroke-width:0.26458332">naive:</tspan></text>
  </g>
</svg>
