<?xml version="1.0" encoding="UTF-8" standalone="no"?>
<!-- Created with Inkscape (http://www.inkscape.org/) -->

<svg
   width="249.78053mm"
   height="117.62524mm"
   viewBox="0 0 249.78054 117.62525"
   version="1.1"
   id="svg8"
   inkscape:version="1.1 (ce6663b3b7, 2021-05-25)"
   sodipodi:docname="rca-sequence-of-events.svg"
   xmlns:inkscape="http://www.inkscape.org/namespaces/inkscape"
   xmlns:sodipodi="http://sodipodi.sourceforge.net/DTD/sodipodi-0.dtd"
   xmlns:xlink="http://www.w3.org/1999/xlink"
   xmlns="http://www.w3.org/2000/svg"
   xmlns:svg="http://www.w3.org/2000/svg"
   xmlns:rdf="http://www.w3.org/1999/02/22-rdf-syntax-ns#"
   xmlns:cc="http://creativecommons.org/ns#"
   xmlns:dc="http://purl.org/dc/elements/1.1/">
  <defs
     id="defs2">
    <marker
       style="overflow:visible"
       id="marker17696"
       refX="0"
       refY="0"
       orient="auto"
       inkscape:stockid="Arrow1Mend"
       inkscape:isstock="true">
      <path
         transform="matrix(-0.4,0,0,-0.4,-4,0)"
         style="fill:context-stroke;fill-rule:evenodd;stroke:context-stroke;stroke-width:1pt"
         d="M 0,0 5,-5 -12.5,0 5,5 Z"
         id="path17694" />
    </marker>
    <marker
       style="overflow:visible"
       id="marker17696_Fnone_S#000000"
       refX="0"
       refY="0"
       orient="auto"
       inkscape:stockid="Arrow1Mend"
       inkscape:isstock="true">
      <path
         transform="matrix(-0.4,0,0,-0.4,-4,0)"
         style="fill:#000000;fill-rule:evenodd;stroke:#000000;stroke-width:1pt"
         d="M 0,0 5,-5 -12.5,0 5,5 Z"
         id="path3050" />
    </marker>
    <marker
       style="overflow:visible"
       id="Arrow1Mend"
       refX="0"
       refY="0"
       orient="auto"
       inkscape:stockid="Arrow1Mend"
       inkscape:isstock="true">
      <path
         transform="matrix(-0.4,0,0,-0.4,-4,0)"
         style="fill:context-stroke;fill-rule:evenodd;stroke:context-stroke;stroke-width:1pt"
         d="M 0,0 5,-5 -12.5,0 5,5 Z"
         id="path11263" />
    </marker>
    <marker
       style="overflow:visible"
       id="Arrow1Mend_Fnone_S#000000"
       refX="0"
       refY="0"
       orient="auto"
       inkscape:stockid="Arrow1Mend"
       inkscape:isstock="true">
      <path
         transform="matrix(-0.4,0,0,-0.4,-4,0)"
         style="fill:#000000;fill-rule:evenodd;stroke:#000000;stroke-width:1pt"
         d="M 0,0 5,-5 -12.5,0 5,5 Z"
         id="path3053" />
    </marker>
    <marker
       inkscape:stockid="Arrow1Lend"
       orient="auto"
       refY="0"
       refX="0"
       id="marker3056"
       style="overflow:visible"
       inkscape:isstock="true">
      <path
         inkscape:connector-curvature="0"
         id="path3054"
         d="M 0,0 5,-5 -12.5,0 5,5 Z"
         style="fill:#000000;fill-opacity:1;fill-rule:evenodd;stroke:#000000;stroke-width:1pt;stroke-opacity:1"
         transform="matrix(-0.8,0,0,-0.8,-10,0)" />
    </marker>
    <marker
       inkscape:stockid="Arrow1Lend"
       orient="auto"
       refY="0"
       refX="0"
       id="marker2598"
       style="overflow:visible"
       inkscape:isstock="true">
      <path
         id="path2596"
         d="M 0,0 5,-5 -12.5,0 5,5 Z"
         style="fill:#000000;fill-opacity:1;fill-rule:evenodd;stroke:#000000;stroke-width:1pt;stroke-opacity:1"
         transform="matrix(-0.8,0,0,-0.8,-10,0)"
         inkscape:connector-curvature="0" />
    </marker>
    <marker
       inkscape:stockid="Arrow1Lend"
       orient="auto"
       refY="0"
       refX="0"
       id="marker1423"
       style="overflow:visible"
       inkscape:isstock="true">
      <path
         id="path1421"
         d="M 0,0 5,-5 -12.5,0 5,5 Z"
         style="fill:#000000;fill-opacity:1;fill-rule:evenodd;stroke:#000000;stroke-width:1pt;stroke-opacity:1"
         transform="matrix(-0.8,0,0,-0.8,-10,0)"
         inkscape:connector-curvature="0" />
    </marker>
  </defs>
  <sodipodi:namedview
     id="base"
     pagecolor="#ffffff"
     bordercolor="#666666"
     borderopacity="1.0"
     inkscape:pageopacity="0.0"
     inkscape:pageshadow="2"
     inkscape:zoom="0.98994949"
     inkscape:cx="330.82496"
     inkscape:cy="114.14724"
     inkscape:document-units="mm"
     inkscape:current-layer="layer1"
     showgrid="false"
     fit-margin-left="5"
     fit-margin-right="5"
     fit-margin-top="5"
     fit-margin-bottom="5"
     inkscape:window-width="1440"
     inkscape:window-height="2523"
     inkscape:window-x="2880"
     inkscape:window-y="0"
     inkscape:window-maximized="1"
     inkscape:pagecheckerboard="0" />
  <metadata
     id="metadata5">
    <rdf:RDF>
      <cc:Work
         rdf:about="">
        <dc:format>image/svg+xml</dc:format>
        <dc:type
           rdf:resource="http://purl.org/dc/dcmitype/StillImage" />
      </cc:Work>
    </rdf:RDF>
  </metadata>
  <g
     inkscape:label="Layer 1"
     inkscape:groupmode="layer"
     id="layer1"
     transform="translate(-14.87781,-216.43888)">
    <text
       xml:space="preserve"
       style="font-style:normal;font-variant:normal;font-weight:normal;font-stretch:normal;font-size:4.23333px;line-height:1.25;font-family:'Ubuntu Mono';-inkscape-font-specification:'Ubuntu Mono';font-variant-ligatures:normal;font-variant-position:normal;font-variant-caps:normal;font-variant-numeric:normal;font-variant-alternates:normal;font-feature-settings:normal;text-indent:0;text-align:start;text-decoration:none;text-decoration-line:none;text-decoration-style:solid;text-decoration-color:#000000;letter-spacing:0px;word-spacing:0px;text-transform:none;writing-mode:lr-tb;direction:ltr;text-orientation:mixed;dominant-baseline:auto;baseline-shift:baseline;text-anchor:start;white-space:normal;shape-padding:0;opacity:1;vector-effect:none;fill:#000000;fill-opacity:1;stroke:none;stroke-width:0.264583;stroke-linecap:butt;stroke-linejoin:miter;stroke-miterlimit:4;stroke-dasharray:none;stroke-dashoffset:0;stroke-opacity:1"
       x="40.675049"
       y="250.5979"
       id="text3529"><tspan
         sodipodi:role="line"
         id="tspan3527"
         style="stroke-width:0.264583"
         x="40.675049"
         y="250.5979">SymptomA</tspan></text>
    <g
       id="g3966"
       transform="translate(15.53454,56)">
      <ellipse
         style="font-variation-settings:normal;opacity:1;vector-effect:none;fill:#ccdc49;fill-opacity:1;fill-rule:evenodd;stroke:#000000;stroke-width:0.499999;stroke-linecap:butt;stroke-linejoin:miter;stroke-miterlimit:4;stroke-dasharray:none;stroke-dashoffset:0;stroke-opacity:1;stop-color:#000000;stop-opacity:1"
         id="path535"
         cx="48.752705"
         cy="258.32025"
         rx="6.9684715"
         ry="4.3067522" />
      <path
         style="opacity:1;vector-effect:none;fill:#000000;fill-opacity:1;stroke:#000000;stroke-width:0.499999;stroke-linecap:butt;stroke-linejoin:miter;stroke-miterlimit:4;stroke-dasharray:none;stroke-dashoffset:0;stroke-opacity:1"
         d="m 47.659605,256.46645 v 3.70862 l 3.14246,-1.85007 z"
         id="path3812" />
    </g>
    <g
       id="g7595"
       transform="translate(-29,-1)">
      <ellipse
         style="font-variation-settings:normal;vector-effect:none;fill:#47b8e4;fill-opacity:1;fill-rule:evenodd;stroke:#000000;stroke-width:0.499999;stroke-linecap:butt;stroke-linejoin:miter;stroke-miterlimit:4;stroke-dasharray:none;stroke-dashoffset:0;stroke-opacity:1;stop-color:#000000"
         id="ellipse4034"
         cx="78.845665"
         cy="258.58444"
         rx="6.9684715"
         ry="4.3067522" />
      <text
         xml:space="preserve"
         style="font-style:normal;font-variant:normal;font-weight:normal;font-stretch:normal;font-size:9.55614px;line-height:1.25;font-family:'Khmer OS';-inkscape-font-specification:'Khmer OS, Normal';font-variant-ligatures:normal;font-variant-position:normal;font-variant-caps:normal;font-variant-numeric:normal;font-variant-alternates:normal;font-variant-east-asian:normal;text-indent:0;text-align:start;text-decoration:none;text-decoration-line:none;text-decoration-style:solid;text-decoration-color:#000000;letter-spacing:0px;word-spacing:0px;text-transform:none;writing-mode:lr-tb;direction:ltr;text-orientation:mixed;dominant-baseline:auto;baseline-shift:baseline;text-anchor:start;white-space:normal;shape-padding:0;opacity:1;vector-effect:none;fill:#000000;fill-opacity:1;stroke:none;stroke-width:0.264582;stroke-linecap:butt;stroke-linejoin:miter;stroke-miterlimit:4;stroke-dasharray:none;stroke-dashoffset:0;stroke-opacity:1"
         x="46.143517"
         y="432.29749"
         id="text4653"
         transform="scale(1.6583141,0.60302206)"><tspan
           sodipodi:role="line"
           id="tspan4651"
           style="font-style:normal;font-variant:normal;font-weight:normal;font-stretch:normal;font-size:9.55614px;font-family:'Khmer OS';-inkscape-font-specification:'Khmer OS, Normal';font-variant-ligatures:normal;font-variant-caps:normal;font-variant-numeric:normal;font-variant-east-asian:normal;stroke-width:0.264582"
           x="46.143517"
           y="432.29749">I</tspan></text>
    </g>
    <text
       xml:space="preserve"
       style="font-style:normal;font-variant:normal;font-weight:normal;font-stretch:normal;font-size:4.23333px;line-height:1.25;font-family:'Ubuntu Mono';-inkscape-font-specification:'Ubuntu Mono';font-variant-ligatures:normal;font-variant-position:normal;font-variant-caps:normal;font-variant-numeric:normal;font-variant-alternates:normal;font-feature-settings:normal;text-indent:0;text-align:start;text-decoration:none;text-decoration-line:none;text-decoration-style:solid;text-decoration-color:#000000;letter-spacing:0px;word-spacing:0px;text-transform:none;writing-mode:lr-tb;direction:ltr;text-orientation:mixed;dominant-baseline:auto;baseline-shift:baseline;text-anchor:start;white-space:normal;shape-padding:0;opacity:1;vector-effect:none;fill:#a51d2d;fill-opacity:1;stroke:none;stroke-width:0.264583;stroke-linecap:butt;stroke-linejoin:miter;stroke-miterlimit:4;stroke-dasharray:none;stroke-dashoffset:0;stroke-opacity:1"
       x="73.632362"
       y="315.65787"
       id="text7711"><tspan
         sodipodi:role="line"
         id="tspan7709"
         style="fill:#a51d2d;stroke-width:0.264583"
         x="73.632362"
         y="315.65787">RootCause</tspan></text>
    <text
       xml:space="preserve"
       style="font-style:normal;font-variant:normal;font-weight:normal;font-stretch:normal;font-size:4.23333px;line-height:1.25;font-family:'Ubuntu Mono';-inkscape-font-specification:'Ubuntu Mono';font-variant-ligatures:normal;font-variant-position:normal;font-variant-caps:normal;font-variant-numeric:normal;font-variant-alternates:normal;font-feature-settings:normal;text-indent:0;text-align:start;text-decoration:none;text-decoration-line:none;text-decoration-style:solid;text-decoration-color:#000000;letter-spacing:0px;word-spacing:0px;text-transform:none;writing-mode:lr-tb;direction:ltr;text-orientation:mixed;dominant-baseline:auto;baseline-shift:baseline;text-anchor:start;white-space:normal;shape-padding:0;opacity:1;vector-effect:none;fill:#000000;fill-opacity:1;stroke:none;stroke-width:0.264583;stroke-linecap:butt;stroke-linejoin:miter;stroke-miterlimit:4;stroke-dasharray:none;stroke-dashoffset:0;stroke-opacity:1"
       x="19.708477"
       y="224.40645"
       id="text7927"><tspan
         sodipodi:role="line"
         id="tspan7925"
         style="stroke-width:0.264583"
         x="19.708477"
         y="224.40645">Daggity confusingly puts what looks like an I (for independent) on</tspan><tspan
         sodipodi:role="line"
         style="stroke-width:0.264583"
         x="19.708477"
         y="229.6981"
         id="tspan10003">outcome variables. An outcome variable is a dependent variable; this</tspan><tspan
         sodipodi:role="line"
         style="stroke-width:0.264583"
         x="19.708477"
         y="234.98978"
         id="tspan10005">symbol may be half a &quot;pause&quot; symbol.</tspan></text>
    <path
       style="opacity:1;vector-effect:none;fill:none;fill-opacity:1;stroke:#000000;stroke-width:0.499999;stroke-linecap:butt;stroke-linejoin:miter;stroke-miterlimit:4;stroke-dasharray:none;stroke-dashoffset:0;stroke-opacity:1;marker-end:url(#Arrow1Mend_Fnone_S#000000)"
       d="m 25.147787,238.23608 c 0,9.50451 -0.143488,19.44986 15.449855,19.44986"
       id="path10309"
       sodipodi:nodetypes="cc" />
    <text
       xml:space="preserve"
       style="font-style:normal;font-variant:normal;font-weight:normal;font-stretch:normal;font-size:4.23333px;line-height:1.25;font-family:'Ubuntu Mono';-inkscape-font-specification:'Ubuntu Mono';font-variant-ligatures:normal;font-variant-position:normal;font-variant-caps:normal;font-variant-numeric:normal;font-variant-alternates:normal;font-feature-settings:normal;text-indent:0;text-align:center;text-decoration:none;text-decoration-line:none;text-decoration-style:solid;text-decoration-color:#000000;letter-spacing:0px;word-spacing:0px;text-transform:none;writing-mode:lr-tb;direction:ltr;text-orientation:mixed;dominant-baseline:auto;baseline-shift:baseline;text-anchor:middle;white-space:normal;shape-padding:0;opacity:1;vector-effect:none;fill:#000000;fill-opacity:1;stroke:none;stroke-width:0.264583;stroke-linecap:butt;stroke-linejoin:miter;stroke-miterlimit:4;stroke-dasharray:none;stroke-dashoffset:0;stroke-opacity:1"
       x="80.260933"
       y="245.5979"
       id="text11980"><tspan
         sodipodi:role="line"
         id="tspan11978"
         style="text-align:center;text-anchor:middle;stroke-width:0.264583"
         x="80.260933"
         y="245.5979">PrimarySymptom</tspan><tspan
         sodipodi:role="line"
         style="text-align:center;text-anchor:middle;stroke-width:0.264583"
         x="80.260933"
         y="250.88956"
         id="tspan18746">(Defect)</tspan></text>
    <g
       id="g11988"
       transform="translate(1,-1)">
      <ellipse
         style="font-variation-settings:normal;vector-effect:none;fill:#47b8e4;fill-opacity:1;fill-rule:evenodd;stroke:#000000;stroke-width:0.499999;stroke-linecap:butt;stroke-linejoin:miter;stroke-miterlimit:4;stroke-dasharray:none;stroke-dashoffset:0;stroke-opacity:1;stop-color:#000000"
         id="ellipse11982"
         cx="78.845665"
         cy="258.58444"
         rx="6.9684715"
         ry="4.3067522" />
      <text
         xml:space="preserve"
         style="font-style:normal;font-variant:normal;font-weight:normal;font-stretch:normal;font-size:9.55614px;line-height:1.25;font-family:'Khmer OS';-inkscape-font-specification:'Khmer OS, Normal';font-variant-ligatures:normal;font-variant-position:normal;font-variant-caps:normal;font-variant-numeric:normal;font-variant-alternates:normal;font-variant-east-asian:normal;text-indent:0;text-align:start;text-decoration:none;text-decoration-line:none;text-decoration-style:solid;text-decoration-color:#000000;letter-spacing:0px;word-spacing:0px;text-transform:none;writing-mode:lr-tb;direction:ltr;text-orientation:mixed;dominant-baseline:auto;baseline-shift:baseline;text-anchor:start;white-space:normal;shape-padding:0;opacity:1;vector-effect:none;fill:#000000;fill-opacity:1;stroke:none;stroke-width:0.264582;stroke-linecap:butt;stroke-linejoin:miter;stroke-miterlimit:4;stroke-dasharray:none;stroke-dashoffset:0;stroke-opacity:1"
         x="46.143517"
         y="432.29749"
         id="text11986"
         transform="scale(1.6583141,0.60302206)"><tspan
           sodipodi:role="line"
           id="tspan11984"
           style="font-style:normal;font-variant:normal;font-weight:normal;font-stretch:normal;font-size:9.55614px;font-family:'Khmer OS';-inkscape-font-specification:'Khmer OS, Normal';font-variant-ligatures:normal;font-variant-caps:normal;font-variant-numeric:normal;font-variant-east-asian:normal;stroke-width:0.264582"
           x="46.143517"
           y="432.29749">I</tspan></text>
    </g>
    <text
       xml:space="preserve"
       style="font-style:normal;font-variant:normal;font-weight:normal;font-stretch:normal;font-size:4.23333px;line-height:1.25;font-family:'Ubuntu Mono';-inkscape-font-specification:'Ubuntu Mono';font-variant-ligatures:normal;font-variant-position:normal;font-variant-caps:normal;font-variant-numeric:normal;font-variant-alternates:normal;font-feature-settings:normal;text-indent:0;text-align:start;text-decoration:none;text-decoration-line:none;text-decoration-style:solid;text-decoration-color:#000000;letter-spacing:0px;word-spacing:0px;text-transform:none;writing-mode:lr-tb;direction:ltr;text-orientation:mixed;dominant-baseline:auto;baseline-shift:baseline;text-anchor:start;white-space:normal;shape-padding:0;opacity:1;vector-effect:none;fill:#000000;fill-opacity:1;stroke:none;stroke-width:0.264583;stroke-linecap:butt;stroke-linejoin:miter;stroke-miterlimit:4;stroke-dasharray:none;stroke-dashoffset:0;stroke-opacity:1"
       x="97.675049"
       y="250.5979"
       id="text12446"><tspan
         sodipodi:role="line"
         id="tspan12444"
         style="stroke-width:0.264583"
         x="97.675049"
         y="250.5979">DifferenceA</tspan></text>
    <g
       id="g12454"
       transform="translate(31,-1)">
      <ellipse
         style="font-variation-settings:normal;vector-effect:none;fill:#47b8e4;fill-opacity:1;fill-rule:evenodd;stroke:#000000;stroke-width:0.499999;stroke-linecap:butt;stroke-linejoin:miter;stroke-miterlimit:4;stroke-dasharray:none;stroke-dashoffset:0;stroke-opacity:1;stop-color:#000000"
         id="ellipse12448"
         cx="78.845665"
         cy="258.58444"
         rx="6.9684715"
         ry="4.3067522" />
      <text
         xml:space="preserve"
         style="font-style:normal;font-variant:normal;font-weight:normal;font-stretch:normal;font-size:9.55614px;line-height:1.25;font-family:'Khmer OS';-inkscape-font-specification:'Khmer OS, Normal';font-variant-ligatures:normal;font-variant-position:normal;font-variant-caps:normal;font-variant-numeric:normal;font-variant-alternates:normal;font-variant-east-asian:normal;text-indent:0;text-align:start;text-decoration:none;text-decoration-line:none;text-decoration-style:solid;text-decoration-color:#000000;letter-spacing:0px;word-spacing:0px;text-transform:none;writing-mode:lr-tb;direction:ltr;text-orientation:mixed;dominant-baseline:auto;baseline-shift:baseline;text-anchor:start;white-space:normal;shape-padding:0;opacity:1;vector-effect:none;fill:#000000;fill-opacity:1;stroke:none;stroke-width:0.264582;stroke-linecap:butt;stroke-linejoin:miter;stroke-miterlimit:4;stroke-dasharray:none;stroke-dashoffset:0;stroke-opacity:1"
         x="46.143517"
         y="432.29749"
         id="text12452"
         transform="scale(1.6583141,0.60302206)"><tspan
           sodipodi:role="line"
           id="tspan12450"
           style="font-style:normal;font-variant:normal;font-weight:normal;font-stretch:normal;font-size:9.55614px;font-family:'Khmer OS';-inkscape-font-specification:'Khmer OS, Normal';font-variant-ligatures:normal;font-variant-caps:normal;font-variant-numeric:normal;font-variant-east-asian:normal;stroke-width:0.264582"
           x="46.143517"
           y="432.29749">I</tspan></text>
    </g>
    <text
       xml:space="preserve"
       style="font-style:normal;font-variant:normal;font-weight:normal;font-stretch:normal;font-size:4.23333px;line-height:1.25;font-family:'Ubuntu Mono';-inkscape-font-specification:'Ubuntu Mono';font-variant-ligatures:normal;font-variant-position:normal;font-variant-caps:normal;font-variant-numeric:normal;font-variant-alternates:normal;font-feature-settings:normal;text-indent:0;text-align:start;text-decoration:none;text-decoration-line:none;text-decoration-style:solid;text-decoration-color:#000000;letter-spacing:0px;word-spacing:0px;text-transform:none;writing-mode:lr-tb;direction:ltr;text-orientation:mixed;dominant-baseline:auto;baseline-shift:baseline;text-anchor:start;white-space:normal;shape-padding:0;opacity:1;vector-effect:none;fill:#000000;fill-opacity:1;stroke:none;stroke-width:0.264583;stroke-linecap:butt;stroke-linejoin:miter;stroke-miterlimit:4;stroke-dasharray:none;stroke-dashoffset:0;stroke-opacity:1"
       x="128.67505"
       y="250.5979"
       id="text12458"><tspan
         sodipodi:role="line"
         id="tspan12456"
         style="stroke-width:0.264583"
         x="128.67505"
         y="250.5979">DifferenceB</tspan></text>
    <g
       id="g12466"
       transform="translate(61,-1)">
      <ellipse
         style="font-variation-settings:normal;vector-effect:none;fill:#47b8e4;fill-opacity:1;fill-rule:evenodd;stroke:#000000;stroke-width:0.499999;stroke-linecap:butt;stroke-linejoin:miter;stroke-miterlimit:4;stroke-dasharray:none;stroke-dashoffset:0;stroke-opacity:1;stop-color:#000000"
         id="ellipse12460"
         cx="78.845665"
         cy="258.58444"
         rx="6.9684715"
         ry="4.3067522" />
      <text
         xml:space="preserve"
         style="font-style:normal;font-variant:normal;font-weight:normal;font-stretch:normal;font-size:9.55614px;line-height:1.25;font-family:'Khmer OS';-inkscape-font-specification:'Khmer OS, Normal';font-variant-ligatures:normal;font-variant-position:normal;font-variant-caps:normal;font-variant-numeric:normal;font-variant-alternates:normal;font-variant-east-asian:normal;text-indent:0;text-align:start;text-decoration:none;text-decoration-line:none;text-decoration-style:solid;text-decoration-color:#000000;letter-spacing:0px;word-spacing:0px;text-transform:none;writing-mode:lr-tb;direction:ltr;text-orientation:mixed;dominant-baseline:auto;baseline-shift:baseline;text-anchor:start;white-space:normal;shape-padding:0;opacity:1;vector-effect:none;fill:#000000;fill-opacity:1;stroke:none;stroke-width:0.264582;stroke-linecap:butt;stroke-linejoin:miter;stroke-miterlimit:4;stroke-dasharray:none;stroke-dashoffset:0;stroke-opacity:1"
         x="46.143517"
         y="432.29749"
         id="text12464"
         transform="scale(1.6583141,0.60302206)"><tspan
           sodipodi:role="line"
           id="tspan12462"
           style="font-style:normal;font-variant:normal;font-weight:normal;font-stretch:normal;font-size:9.55614px;font-family:'Khmer OS';-inkscape-font-specification:'Khmer OS, Normal';font-variant-ligatures:normal;font-variant-caps:normal;font-variant-numeric:normal;font-variant-east-asian:normal;stroke-width:0.264582"
           x="46.143517"
           y="432.29749">I</tspan></text>
    </g>
    <g
       id="g13119"
       transform="translate(75,19)">
      <ellipse
         style="font-variation-settings:normal;opacity:1;vector-effect:none;fill:#ccdc49;fill-opacity:1;fill-rule:evenodd;stroke:#000000;stroke-width:0.499999;stroke-linecap:butt;stroke-linejoin:miter;stroke-miterlimit:4;stroke-dasharray:none;stroke-dashoffset:0;stroke-opacity:1;stop-color:#000000;stop-opacity:1"
         id="ellipse13115"
         cx="48.752705"
         cy="258.32025"
         rx="6.9684715"
         ry="4.3067522" />
      <path
         style="opacity:1;vector-effect:none;fill:#000000;fill-opacity:1;stroke:#000000;stroke-width:0.499999;stroke-linecap:butt;stroke-linejoin:miter;stroke-miterlimit:4;stroke-dasharray:none;stroke-dashoffset:0;stroke-opacity:1"
         d="m 47.659605,256.46645 v 3.70862 l 3.14246,-1.85007 z"
         id="path13117" />
    </g>
    <text
       xml:space="preserve"
       style="font-style:normal;font-variant:normal;font-weight:normal;font-stretch:normal;font-size:4.23333px;line-height:1.25;font-family:'Ubuntu Mono';-inkscape-font-specification:'Ubuntu Mono';font-variant-ligatures:normal;font-variant-position:normal;font-variant-caps:normal;font-variant-numeric:normal;font-variant-alternates:normal;font-feature-settings:normal;text-indent:0;text-align:start;text-decoration:none;text-decoration-line:none;text-decoration-style:solid;text-decoration-color:#000000;letter-spacing:0px;word-spacing:0px;text-transform:none;writing-mode:lr-tb;direction:ltr;text-orientation:mixed;dominant-baseline:auto;baseline-shift:baseline;text-anchor:start;white-space:normal;shape-padding:0;opacity:1;vector-effect:none;fill:#000000;fill-opacity:1;stroke:none;stroke-width:0.264583;stroke-linecap:butt;stroke-linejoin:miter;stroke-miterlimit:4;stroke-dasharray:none;stroke-dashoffset:0;stroke-opacity:1"
       x="117.09781"
       y="286.12332"
       id="text13123"><tspan
         sodipodi:role="line"
         id="tspan13121"
         style="stroke-width:0.264583"
         x="117.09781"
         y="286.12332">CauseA</tspan></text>
    <path
       style="opacity:1;vector-effect:none;fill:none;fill-opacity:1;stroke:#000000;stroke-width:0.499999;stroke-linecap:butt;stroke-linejoin:miter;stroke-miterlimit:4;stroke-dasharray:none;stroke-dashoffset:0;stroke-opacity:1;marker-end:url(#Arrow1Mend_Fnone_S#000000)"
       d="m 127.73812,273.76037 8,-11.55683"
       id="path13158"
       sodipodi:nodetypes="cc" />
    <ellipse
       style="font-variation-settings:normal;vector-effect:none;fill:#47b8e4;fill-opacity:1;fill-rule:evenodd;stroke:#000000;stroke-width:0.499999;stroke-linecap:butt;stroke-linejoin:miter;stroke-miterlimit:4;stroke-dasharray:none;stroke-dashoffset:0;stroke-opacity:1;stop-color:#000000"
       id="ellipse13498"
       cx="64.380211"
       cy="293.58444"
       rx="6.9684715"
       ry="4.3067522" />
    <path
       style="opacity:1;vector-effect:none;fill:none;fill-opacity:1;stroke:#000000;stroke-width:0.499999;stroke-linecap:butt;stroke-linejoin:miter;stroke-miterlimit:4;stroke-dasharray:none;stroke-dashoffset:0;stroke-opacity:1;marker-end:url(#Arrow1Mend_Fnone_S#000000)"
       d="M 64.27266,309.6958 V 298.60443"
       id="path13506"
       sodipodi:nodetypes="cc" />
    <path
       style="opacity:1;vector-effect:none;fill:none;fill-opacity:1;stroke:#000000;stroke-width:0.499999;stroke-linecap:butt;stroke-linejoin:miter;stroke-miterlimit:4;stroke-dasharray:none;stroke-dashoffset:0;stroke-opacity:1;marker-end:url(#Arrow1Mend_Fnone_S#000000)"
       d="M 64.27266,289.6958 V 278.60443"
       id="path13593"
       sodipodi:nodetypes="cc" />
    <ellipse
       style="font-variation-settings:normal;vector-effect:none;fill:#47b8e4;fill-opacity:1;fill-rule:evenodd;stroke:#000000;stroke-width:0.499999;stroke-linecap:butt;stroke-linejoin:miter;stroke-miterlimit:4;stroke-dasharray:none;stroke-dashoffset:0;stroke-opacity:1;stop-color:#000000"
       id="ellipse13597"
       cx="63.845657"
       cy="273.58444"
       rx="6.9684715"
       ry="4.3067522" />
    <path
       style="opacity:1;vector-effect:none;fill:none;fill-opacity:1;stroke:#000000;stroke-width:0.499999;stroke-linecap:butt;stroke-linejoin:miter;stroke-miterlimit:4;stroke-dasharray:none;stroke-dashoffset:0;stroke-opacity:1;marker-end:url(#marker17696_Fnone_S#000000)"
       d="m 60.004244,270.09669 -5.732731,-8.225"
       id="path13900"
       sodipodi:nodetypes="cc" />
    <path
       style="opacity:1;vector-effect:none;fill:none;fill-opacity:1;stroke:#000000;stroke-width:0.499999;stroke-linecap:butt;stroke-linejoin:miter;stroke-miterlimit:4;stroke-dasharray:none;stroke-dashoffset:0;stroke-opacity:1;marker-end:url(#Arrow1Mend_Fnone_S#000000)"
       d="m 120.00424,273.49759 -6.53454,-11.6259"
       id="path14022"
       sodipodi:nodetypes="cc" />
    <path
       style="opacity:1;vector-effect:none;fill:none;fill-opacity:1;stroke:#000000;stroke-width:0.499999;stroke-linecap:butt;stroke-linejoin:miter;stroke-miterlimit:4;stroke-dasharray:none;stroke-dashoffset:0;stroke-opacity:1;marker-end:url(#Arrow1Mend_Fnone_S#000000)"
       d="m 68.81915,270.36396 6.99549,-8.6259"
       id="path14104"
       sodipodi:nodetypes="cc" />
    <text
       xml:space="preserve"
       style="font-style:normal;font-variant:normal;font-weight:normal;font-stretch:normal;font-size:4.23333px;line-height:1.25;font-family:'Ubuntu Mono';-inkscape-font-specification:'Ubuntu Mono';font-variant-ligatures:normal;font-variant-position:normal;font-variant-caps:normal;font-variant-numeric:normal;font-variant-alternates:normal;font-feature-settings:normal;text-indent:0;text-align:start;text-decoration:none;text-decoration-line:none;text-decoration-style:solid;text-decoration-color:#000000;letter-spacing:0px;word-spacing:0px;text-transform:none;writing-mode:lr-tb;direction:ltr;text-orientation:mixed;dominant-baseline:auto;baseline-shift:baseline;text-anchor:start;white-space:normal;shape-padding:0;opacity:1;vector-effect:none;fill:#000000;fill-opacity:1;stroke:none;stroke-width:0.264583;stroke-linecap:butt;stroke-linejoin:miter;stroke-miterlimit:4;stroke-dasharray:none;stroke-dashoffset:0;stroke-opacity:1"
       x="72.675049"
       y="274.5979"
       id="text17773"><tspan
         sodipodi:role="line"
         id="tspan17771"
         style="stroke-width:0.264583"
         x="72.675049"
         y="274.5979">SymptomB</tspan></text>
    <text
       xml:space="preserve"
       style="font-style:normal;font-variant:normal;font-weight:normal;font-stretch:normal;font-size:4.23333px;line-height:1.25;font-family:'Ubuntu Mono';-inkscape-font-specification:'Ubuntu Mono';font-variant-ligatures:normal;font-variant-position:normal;font-variant-caps:normal;font-variant-numeric:normal;font-variant-alternates:normal;font-feature-settings:normal;text-indent:0;text-align:start;text-decoration:none;text-decoration-line:none;text-decoration-style:solid;text-decoration-color:#000000;letter-spacing:0px;word-spacing:0px;text-transform:none;writing-mode:lr-tb;direction:ltr;text-orientation:mixed;dominant-baseline:auto;baseline-shift:baseline;text-anchor:start;white-space:normal;shape-padding:0;opacity:1;vector-effect:none;fill:#000000;fill-opacity:1;stroke:none;stroke-width:0.264583;stroke-linecap:butt;stroke-linejoin:miter;stroke-miterlimit:4;stroke-dasharray:none;stroke-dashoffset:0;stroke-opacity:1"
       x="73.209595"
       y="294.5979"
       id="text18091"><tspan
         sodipodi:role="line"
         id="tspan18089"
         style="stroke-width:0.264583"
         x="73.209595"
         y="294.5979">SymptomC</tspan></text>
    <text
       xml:space="preserve"
       style="font-style:normal;font-variant:normal;font-weight:normal;font-stretch:normal;font-size:4.23333px;line-height:1.25;font-family:'Ubuntu Mono';-inkscape-font-specification:'Ubuntu Mono';font-variant-ligatures:normal;font-variant-position:normal;font-variant-caps:normal;font-variant-numeric:normal;font-variant-alternates:normal;font-feature-settings:normal;text-indent:0;text-align:start;text-decoration:none;text-decoration-line:none;text-decoration-style:solid;text-decoration-color:#000000;letter-spacing:0px;word-spacing:0px;text-transform:none;writing-mode:lr-tb;direction:ltr;text-orientation:mixed;dominant-baseline:auto;baseline-shift:baseline;text-anchor:start;white-space:normal;shape-padding:0;opacity:1;vector-effect:none;fill:#000000;fill-opacity:1;stroke:none;stroke-width:0.264583;stroke-linecap:butt;stroke-linejoin:miter;stroke-miterlimit:4;stroke-dasharray:none;stroke-dashoffset:0;stroke-opacity:1"
       x="158.24931"
       y="239.05507"
       id="text19646"><tspan
         sodipodi:role="line"
         style="stroke-width:0.264583"
         x="158.24931"
         y="239.05507"
         id="tspan27187">A &quot;Difference&quot; is some variable you notice is</tspan><tspan
         sodipodi:role="line"
         style="stroke-width:0.264583"
         x="158.24931"
         y="244.34673"
         id="tspan27193">different between the &quot;good&quot; and &quot;bad&quot; inference</tspan><tspan
         sodipodi:role="line"
         style="stroke-width:0.264583"
         x="158.24931"
         y="249.6384"
         id="tspan30671">and assume is a symptom of the same cause.</tspan><tspan
         sodipodi:role="line"
         style="stroke-width:0.264583"
         x="158.24931"
         y="254.93005"
         id="tspan27183" /><tspan
         sodipodi:role="line"
         style="stroke-width:0.264583"
         x="158.24931"
         y="260.22171"
         id="tspan27185">SymptomA is caused by the same undesirable cause</tspan><tspan
         sodipodi:role="line"
         style="stroke-width:0.264583"
         x="158.24931"
         y="265.51337"
         id="tspan19762">that lead to the defect, and may be easier to</tspan><tspan
         sodipodi:role="line"
         style="stroke-width:0.264583"
         x="158.24931"
         y="270.80505"
         id="tspan19764">follow back to the root cause than the primary</tspan><tspan
         sodipodi:role="line"
         style="stroke-width:0.264583"
         x="158.24931"
         y="276.09671"
         id="tspan27199">defect.</tspan><tspan
         sodipodi:role="line"
         style="stroke-width:0.264583"
         x="158.24931"
         y="281.38837"
         id="tspan19752" /><tspan
         sodipodi:role="line"
         style="stroke-width:0.264583"
         x="158.24931"
         y="286.68002"
         id="tspan27201">However, you must confirm SymptomB exists that</tspan><tspan
         sodipodi:role="line"
         style="stroke-width:0.264583"
         x="158.24931"
         y="291.97168"
         id="tspan19768">leads to the PrimarySymptom before labelling</tspan><tspan
         sodipodi:role="line"
         style="stroke-width:0.264583"
         x="158.24931"
         y="297.26337"
         id="tspan19770">SymptomA a &quot;Symptom&quot;. DifferenceA is an example</tspan><tspan
         sodipodi:role="line"
         style="stroke-width:0.264583"
         x="158.24931"
         y="302.55502"
         id="tspan28488">of a red herring (caused by an unrelated</tspan><tspan
         sodipodi:role="line"
         style="stroke-width:0.264583"
         x="158.24931"
         y="307.84668"
         id="tspan28492">difference between the good/bad inferences).</tspan><tspan
         sodipodi:role="line"
         style="stroke-width:0.264583"
         x="158.24931"
         y="313.13834"
         id="tspan28498" /><tspan
         sodipodi:role="line"
         style="stroke-width:0.264583"
         x="158.24931"
         y="318.42999"
         id="tspan28500">If you follow the DifferenceA chain to CauseA,</tspan><tspan
         sodipodi:role="line"
         style="stroke-width:0.264583"
         x="158.24931"
         y="323.72165"
         id="tspan28506">make CauseA the same in the good/bad inference</tspan><tspan
         sodipodi:role="line"
         style="stroke-width:0.264583"
         x="158.24931"
         y="329.01334"
         id="tspan33317">to erase DifferenceB as well.</tspan></text>
    <a
       id="a31103"
       xlink:href="https://en.wikipedia.org/wiki/Media_control_symbols"
       transform="translate(9.2963825,-91.947936)"
       style="text-decoration:underline;fill:#000080;">
      <text
         xml:space="preserve"
         style="font-style:normal;font-variant:normal;font-weight:normal;font-stretch:normal;font-size:4.23333px;line-height:1.25;font-family:'Ubuntu Mono';-inkscape-font-specification:'Ubuntu Mono';font-variant-ligatures:normal;font-variant-position:normal;font-variant-caps:normal;font-variant-numeric:normal;font-variant-alternates:normal;font-feature-settings:normal;text-indent:0;text-align:start;text-decoration:none;text-decoration-line:none;text-decoration-style:solid;text-decoration-color:#000000;letter-spacing:0px;word-spacing:0px;text-transform:none;writing-mode:lr-tb;direction:ltr;text-orientation:mixed;dominant-baseline:auto;baseline-shift:baseline;text-anchor:start;white-space:normal;shape-padding:0;opacity:1;vector-effect:none;fill:#000080;fill-opacity:1;stroke:none;stroke-width:0.264583;stroke-linecap:butt;stroke-linejoin:miter;stroke-miterlimit:4;stroke-dasharray:none;stroke-dashoffset:0;stroke-opacity:1"
         x="89.043861"
         y="326.96536"
         id="text31021"><tspan
           sodipodi:role="line"
           id="tspan31019"
           style="stroke-width:0.264583;fill:#000080"
           x="89.043861"
           y="326.96536">Media control symbols</tspan></text>
    </a>
  </g>
</svg>
